-----------------------------------------------------------------
Ans source:
https://medium.com/better-programming/prototypes-in-javascript-5bba2990e04b
-----------------------------------------------------------------